<?xml version="1.0" standalone="no"?>
<!DOCTYPE svg PUBLIC "-//W3C//DTD SVG 1.1//EN" "http://www.w3.org/Graphics/SVG/1.1/DTD/svg11.dtd" >
<svg xmlns="http://www.w3.org/2000/svg">
<metadata>Generated by IcoMoon</metadata>
<defs>
<font id="icomoon" horiz-adv-x="1024">
<font-face units-per-em="1024" ascent="960" descent="-64" />
<missing-glyph horiz-adv-x="1024" />
<glyph unicode="&#x20;" horiz-adv-x="512" d="" />
<glyph unicode="&#xe900;" glyph-name="arrow-right" d="M1017.8 463l-320 320c-8.4 8.4-21.8 8.4-30.2 0s-8.4-21.8 0-30.2l283.6-283.6h-929.8c-11.8 0.2-21.4-9.4-21.4-21.2s9.6-21.4 21.4-21.4h929.8l-283.6-283.6c-8.4-8.4-8.4-21.8 0-30.2 4.2-4.2 9.6-6.2 15-6.2s11 2 15 6.2l320 320c8.4 8.4 8.4 22 0.2 30.2z" />
<glyph unicode="&#xe901;" glyph-name="instagram" d="M610 448c0-54.2-43.8-98-98-98s-98 43.8-98 98 43.8 98 98 98 98-43.8 98-98zM741.2 621.4c-4.8 12.8-12.2 24.4-22 33.8-9.4 9.8-21 17.2-33.8 22-10.4 4-26 8.8-54.6 10.2-31 1.4-40.4 1.8-118.8 1.8-78.6 0-87.8-0.2-118.8-1.8-28.6-1.4-44.2-6.2-54.6-10.2-12.8-4.8-24.4-12.2-33.8-22-9.8-9.4-17.2-21-22-33.8-4-10.4-8.8-26-10.2-54.6-1.4-31-1.8-40.2-1.8-118.8 0-78.4 0.4-87.8 1.8-118.8 1.4-28.6 6-44.2 10.2-54.6 4.8-12.8 12.2-24.4 22-33.8 9.4-9.8 21-17.2 33.8-22 10.4-4 26-8.8 54.6-10.2 31-1.4 40.2-1.8 118.8-1.8s87.8 0.2 118.8 1.8c28.6 1.4 44.2 6 54.6 10.2 25.6 9.8 46 30.2 55.8 55.8 4 10.4 8.8 26 10.2 54.6 1.4 31 1.8 40.4 1.8 118.8 0 78.6-0.2 87.8-1.8 118.8-1.4 28.6-6.2 44.2-10.2 54.6zM512 297c-83.4 0-151 67.6-151 151s67.6 151 151 151c83.4 0 151-67.6 151-151s-67.6-151-151-151zM669 569.6c-19.4 0-35.2 15.8-35.2 35.2s15.8 35.2 35.2 35.2 35.2-15.8 35.2-35.2c0-19.4-15.8-35.2-35.2-35.2zM512 960c-282.8 0-512-229.2-512-512s229.2-512 512-512 512 229.2 512 512-229.2 512-512 512zM804.2 326.8c-1.4-31.2-6.4-52.6-13.6-71.4-15.2-39.4-46.4-70.8-86-86-18.6-7.2-40-12.2-71.4-13.6s-41.4-1.8-121.2-1.8c-79.8 0-89.8 0.4-121.2 1.8-31.2 1.4-52.6 6.4-71.4 13.6-19.6 7.4-37.4 19-52 34-15 14.6-26.6 32.4-34 52-7.2 18.6-12.2 40-13.6 71.4s-1.8 41.4-1.8 121.2 0.4 89.8 1.8 121.2c1.4 31.2 6.4 52.6 13.6 71.4 7.4 19.6 19 37.4 34 52 14.6 15 32.4 26.6 52 34 18.8 7.2 40 12.2 71.4 13.6s41.4 1.8 121.2 1.8 89.8-0.4 121.2-1.8c31.2-1.4 52.6-6.4 71.4-13.6 19.6-7.4 37.4-19 52-34 15-14.6 26.6-32.4 34-52 7.2-18.8 12.2-40 13.6-71.4s1.8-41.4 1.8-121.2-0.4-89.8-1.8-121.2z" />
<glyph unicode="&#xe902;" glyph-name="twitter" d="M512 960c-282.8 0-512-229.2-512-512s229.2-512 512-512 512 229.2 512 512-229.2 512-512 512zM745.8 560.8c0.2-5 0.4-10.2 0.4-15.2 0-155.2-118.2-334.4-334.4-334.4v0 0c-66.4 0-128.2 19.4-180.2 52.8 9.2-1 18.6-1.6 28-1.6 55 0 105.8 18.8 146 50.4-51.4 1-94.8 35-109.8 81.6 7.2-1.4 14.6-2.2 22-2.2 10.8 0 21.2 1.4 31 4.2-53.8 10.8-94.2 58.2-94.2 115.2 0 0.6 0 1 0 1.6 15.8-8.8 34-14.2 53.2-14.6-31.6 21-52.2 57-52.2 97.8 0 21.6 5.8 41.8 16 59 58-71.2 144.6-117.8 242.2-122.8-2 8.6-3 17.6-3 26.8 0 64.8 52.6 117.6 117.6 117.6 33.8 0 64.4-14.2 85.8-37.2 26.8 5.2 52 15 74.6 28.6-8.8-27.4-27.4-50.4-51.6-65 23.8 2.8 46.4 9.2 67.4 18.6-16-24-35.8-44.6-58.8-61.2z" />
<glyph unicode="&#xe903;" glyph-name="facebook" d="M594.6-57.4c-4.2-0.6-8.6-1.4-12.8-2 4.2 0.8 8.4 1.4 12.8 2zM604.8-55.6c-2-0.4-4-0.8-6.2-1 2.2 0.2 4.2 0.6 6.2 1zM570.2-60.6c-5-0.6-10-1-15-1.4 5 0.2 10 0.8 15 1.4zM580.2-59.4c-2.4-0.4-4.8-0.6-7.2-0.8 2.2 0.2 4.8 0.4 7.2 0.8zM618.8-52.8c-1.8-0.4-3.6-0.8-5.4-1.2 1.8 0.4 3.6 0.8 5.4 1.2zM653.4-44.2c-1.4-0.4-3-0.8-4.4-1.2 1.4 0.4 2.8 0.8 4.4 1.2zM642.8-47c-1.6-0.4-3.2-0.8-4.8-1.2 1.8 0.2 3.2 0.6 4.8 1.2zM629.2-50.6c-1.6-0.4-3.4-0.8-5-1.2 1.6 0.6 3.4 1 5 1.2zM555-62.2c-2.6-0.2-5.4-0.4-8-0.6 2.6 0.2 5.4 0.4 8 0.6zM1024 448c0 282.8-229.2 512-512 512s-512-229.2-512-512 229.2-512 512-512c3 0 6 0 9 0.2v398.4h-110v128.2h110v94.4c0 109.4 66.8 169 164.4 169 46.8 0 87-3.4 98.6-5v-114.4h-67.2c-53 0-63.4-25.2-63.4-62.2v-81.6h127l-16.6-128.2h-110.4v-379c214 61.4 370.6 258.4 370.6 492.2zM545.8-62.8c-5.4-0.4-10.6-0.6-16-0.8 5.4 0.2 10.6 0.4 16 0.8zM529.6-63.6c-2.8 0-5.6-0.2-8.4-0.2 2.6 0 5.4 0 8.4 0.2z" />
<glyph unicode="&#xe904;" glyph-name="cart" d="M904 720h-121.8c-16 135-131 240-270.2 240s-254.2-105-270.2-240h-121.8c-22 0-40-18-40-40v-704c0-22 18-40 40-40h784c22 0 40 18 40 40v704c0 22-18 40-40 40zM512 880c95 0 174-69.4 189.4-160h-378.8c15.4 90.6 94.4 160 189.4 160zM864 16h-704v624h80v-120c0-22 18-40 40-40s40 18 40 40v120h384v-120c0-22 18-40 40-40s40 18 40 40v120h80v-624z" />
<glyph unicode="&#xe905;" glyph-name="close" d="M568.571 447.997l443.713 443.715c15.622 15.622 15.622 40.95 0 56.57s-40.95 15.622-56.57 0l-443.715-443.715-443.713 443.715c-15.622 15.622-40.95 15.622-56.57 0s-15.622-40.95 0-56.57l443.713-443.713-443.713-443.715c-15.622-15.622-15.622-40.95 0-56.57 7.81-7.81 18.048-11.714 28.286-11.714s20.474 3.904 28.286 11.714l443.711 443.713 443.713-443.713c7.81-7.81 18.048-11.714 28.286-11.714s20.474 3.904 28.286 11.714c15.622 15.622 15.622 40.95 0 56.57l-443.713 443.713z" />
<glyph unicode="&#xe906;" glyph-name="minus" d="M0 512.001h1024v-128.001h-1024v128.001z" />
<glyph unicode="&#xe907;" glyph-name="plus" d="M575.888 511.888v448.112h-127.775v-448.112h-448.112v-127.775h448.112v-448.112h127.775v448.112h448.112v127.775z" />
<glyph unicode="&#xe908;" glyph-name="sg" d="M956 275.8l-277 166.6c-38.8 23.4-82.2 38.2-127 43.8v41.8c0 23.6 13.4 45.4 35.2 57.2 53.8 29.2 85.6 85.2 82.8 146.4-3.8 81-69.2 146.6-150.4 150.4-91 4.2-165.4-68.2-165.4-157.8 0-22 18-40 40-40s40 18 40 40c0 44.2 36.8 80 81.8 78 39.8-1.8 72.4-34.4 74.2-74.2 1.4-30.2-14.2-58-40.8-72.4-47.6-25.8-77-74.6-77-127.4v-41.8c-44.6-5.6-87.6-20.2-126.4-43.4l-277.2-166c-42.6-25.4-68.8-71.6-68.8-120.6 0-77.6 62.6-140.6 140.2-140.6l743.2-0.8c77.4 0 140.4 63 140.4 140.2 0.2 49-25.8 95.2-67.8 120.6zM883.6 94.8c0 0-0.2 0 0 0l-743.2 0.8c-33.4 0-60.4 27.2-60.4 60.6 0 21.2 11.2 41 29.4 51.8v0l277.4 166c77.2 46.2 173.8 46.2 251-0.2l277-166.6c18-10.8 29.4-30.8 29.2-51.8 0-33.4-27.2-60.6-60.4-60.6z" />
<glyph unicode="&#xe909;" glyph-name="arrow-left" d="M6.144 463.008l320 320c8.384 8.416 21.792 8.416 30.208 0s8.384-21.792 0-30.208l-283.616-283.616h929.792c11.808 0.192 21.408-9.408 21.408-21.184s-9.6-21.408-21.408-21.408h-929.792l283.616-283.616c8.384-8.384 8.384-21.792 0-30.208-4.192-4.192-9.6-6.208-15.008-6.208s-11.008 2.016-15.008 6.208l-320 320c-8.416 8.384-8.416 22.016-0.192 30.208z" />
<glyph unicode="&#xe90a;" glyph-name="close-bold" d="M1024 839.334l-120.666 120.666-391.335-391.333-391.333 391.333-120.666-120.666 391.333-391.333-391.333-391.335 120.666-120.666 391.333 391.333 391.333-391.333 120.666 120.666-391.33 391.335z" />
<glyph unicode="&#xe90b;" glyph-name="search" d="M1013.763-2.073l-364.33 364.33c51.464 62.569 82.666 143.495 82.666 231.708 0 202.172-163.893 366.065-366.065 366.065s-366.065-163.893-366.065-366.065c0-202.172 163.893-366.065 366.065-366.065 88.213 0 169.139 31.202 232.343 83.172l-0.635-0.506 364.33-364.33c6.614-6.614 15.752-10.705 25.845-10.705 20.186 0 36.551 16.364 36.551 36.551 0 10.093-4.091 19.231-10.705 25.845v0zM366.572 301.007c-161.476 0-292.378 130.902-292.378 292.378s130.902 292.378 292.378 292.378c161.476 0 292.378-130.902 292.378-292.378v0c-0.192-161.369-130.932-292.138-292.271-292.378h-0.023z" />
<glyph unicode="&#xe90c;" glyph-name="account" d="M1024 447.979c0 0.013 0 0.027 0 0.041 0 282.781-229.239 512.021-512.021 512.021s-512.021-229.239-512.021-512.021c0-282.781 229.239-512.021 512.021-512.021 0.015 0 0.030 0 0.044 0h-0.003c0.074 0 0.161 0 0.249 0 282.621 0 511.73 229.109 511.73 511.73 0 0.087 0 0.175 0 0.262v-0.013zM512.021 899.979c249.661-0.054 452.030-202.456 452.030-452.125 0-94.416-28.941-182.073-78.435-254.583l1.004 1.559c-93.703 100.446-226.839 163.061-374.6 163.061s-280.897-62.616-374.322-162.76l-0.278-0.301c-48.49 70.951-77.431 158.608-77.431 253.024 0 249.669 202.37 452.071 452.026 452.125h0.005zM174.835 147.005c83.12 92.859 203.35 151.024 337.165 151.024s254.044-58.166 336.785-150.593l0.38-0.431c-83.078-92.942-203.321-151.17-337.165-151.17s-254.087 58.228-336.781 150.733l-0.384 0.437zM512.021 417.99c99.375 0.118 179.902 80.645 180.020 180.009v59.99c0.013 0.813 0.021 1.772 0.021 2.733 0 99.422-80.598 180.020-180.020 180.020s-180.020-80.598-180.020-180.020c0-0.961 0.008-1.92 0.023-2.877l-0.002 0.144v-60.021c0.142-99.343 80.636-179.837 179.965-179.979h0.013zM392.021 657.989c0 66.274 53.726 120 120 120s120-53.726 120-120v0-60.021c0-66.274-53.726-120-120-120s-120 53.726-120 120v0z" />
<glyph unicode="&#xe90d;" glyph-name="phone" d="M941.795 287.535c-0.289-0.001-0.632-0.001-0.975-0.001-64.944 0-127.401 10.648-185.72 30.294l4.1-1.198c-7.669 2.567-16.499 4.049-25.676 4.049-21.349 0-40.825-8.017-55.581-21.206l0.081 0.071-115.348-86.597c-124.373 62.929-222.952 161.574-284.129 282.371l-1.668 3.632 84.333 112.123c15.121 14.999 24.482 35.786 24.482 58.759 0 8.964-1.425 17.595-4.061 25.679l0.165-0.585c-18.656 54.541-29.43 117.377-29.438 182.729v0.004c0 0 0 0 0 0 0 45.404-36.749 82.225-82.126 82.342h-187.89c-45.477 0-82.343-36.866-82.343-82.343v0c0.702-519.828 421.955-941.033 941.734-941.657h0.061c45.477 0 82.343 36.866 82.343 82.343v0 187.33c-0.273 45.27-37.034 81.862-82.341 81.862 0 0-0.001 0-0.001 0v0z" />
<glyph unicode="&#xe90e;" glyph-name="email" horiz-adv-x="1434" d="M1382.48 960h-1331.24l665.119-548.299 673.141 546.695c-1.963 0.643-4.332 1.202-6.763 1.572l-0.256 0.032zM749.148 305.811c-8.759-7.206-20.089-11.576-32.439-11.576s-23.68 4.369-32.527 11.646l0.089-0.071-684.271 563.741v-882.413c0-28.299 22.941-51.24 51.24-51.24h1331.14c28.299 0 51.24 22.941 51.24 51.24v0 874.792z" />
<glyph unicode="&#xe96b;" glyph-name="bubble" d="M512 896c282.77 0 512-186.25 512-416 0-229.752-229.23-416-512-416-27.156 0-53.81 1.734-79.824 5.044-109.978-109.978-241.25-129.7-368.176-132.596v26.916c68.536 33.578 128 94.74 128 164.636 0 9.754-0.758 19.33-2.164 28.696-115.796 76.264-189.836 192.754-189.836 323.304 0 229.75 229.23 416 512 416z" />
<glyph unicode="&#xe9da;" glyph-name="heart" d="M755.188 896c-107.63 0-200.258-87.554-243.164-179-42.938 91.444-135.578 179-243.216 179-148.382 0-268.808-120.44-268.808-268.832 0-301.846 304.5-380.994 512.022-679.418 196.154 296.576 511.978 387.206 511.978 679.418 0 148.392-120.43 268.832-268.812 268.832z" />
</font></defs></svg>