<?xml version="1.0" standalone="no"?>
<!DOCTYPE svg PUBLIC "-//W3C//DTD SVG 1.1//EN" "http://www.w3.org/Graphics/SVG/1.1/DTD/svg11.dtd" >
<svg xmlns="http://www.w3.org/2000/svg">
<metadata>Generated by IcoMoon</metadata>
<defs>
<font id="icomoon" horiz-adv-x="1024">
<font-face units-per-em="1024" ascent="960" descent="-64" />
<missing-glyph horiz-adv-x="1024" />
<glyph unicode="&#x20;" horiz-adv-x="512" d="" />
<glyph unicode="&#xe900;" glyph-name="arrow-right" d="M1017.8 463l-320 320c-8.4 8.4-21.8 8.4-30.2 0s-8.4-21.8 0-30.2l283.6-283.6h-929.8c-11.8 0.2-21.4-9.4-21.4-21.2s9.6-21.4 21.4-21.4h929.8l-283.6-283.6c-8.4-8.4-8.4-21.8 0-30.2 4.2-4.2 9.6-6.2 15-6.2s11 2 15 6.2l320 320c8.4 8.4 8.4 22 0.2 30.2z" />
<glyph unicode="&#xe901;" glyph-name="instagram" d="M610 448c0-54.2-43.8-98-98-98s-98 43.8-98 98 43.8 98 98 98 98-43.8 98-98zM741.2 621.4c-4.8 12.8-12.2 24.4-22 33.8-9.4 9.8-21 17.2-33.8 22-10.4 4-26 8.8-54.6 10.2-31 1.4-40.4 1.8-118.8 1.8-78.6 0-87.8-0.2-118.8-1.8-28.6-1.4-44.2-6.2-54.6-10.2-12.8-4.8-24.4-12.2-33.8-22-9.8-9.4-17.2-21-22-33.8-4-10.4-8.8-26-10.2-54.6-1.4-31-1.8-40.2-1.8-118.8 0-78.4 0.4-87.8 1.8-118.8 1.4-28.6 6-44.2 10.2-54.6 4.8-12.8 12.2-24.4 22-33.8 9.4-9.8 21-17.2 33.8-22 10.4-4 26-8.8 54.6-10.2 31-1.4 40.2-1.8 118.8-1.8s87.8 0.2 118.8 1.8c28.6 1.4 44.2 6 54.6 10.2 25.6 9.8 46 30.2 55.8 55.8 4 10.4 8.8 26 10.2 54.6 1.4 31 1.8 40.4 1.8 118.8 0 78.6-0.2 87.8-1.8 118.8-1.4 28.6-6.2 44.2-10.2 54.6zM512 297c-83.4 0-151 67.6-151 151s67.6 151 151 151c83.4 0 151-67.6 151-151s-67.6-151-151-151zM669 569.6c-19.4 0-35.2 15.8-35.2 35.2s15.8 35.2 35.2 35.2 35.2-15.8 35.2-35.2c0-19.4-15.8-35.2-35.2-35.2zM512 960c-282.8 0-512-229.2-512-512s229.2-512 512-512 512 229.2 512 512-229.2 512-512 512zM804.2 326.8c-1.4-31.2-6.4-52.6-13.6-71.4-15.2-39.4-46.4-70.8-86-86-18.6-7.2-40-12.2-71.4-13.6s-41.4-1.8-121.2-1.8c-79.8 0-89.8 0.4-121.2 1.8-31.2 1.4-52.6 6.4-71.4 13.6-19.6 7.4-37.4 19-52 34-15 14.6-26.6 32.4-34 52-7.2 18.6-12.2 40-13.6 71.4s-1.8 41.4-1.8 121.2 0.4 89.8 1.8 121.2c1.4 31.2 6.4 52.6 13.6 71.4 7.4 19.6 19 37.4 34 52 14.6 15 32.4 26.6 52 34 18.8 7.2 40 12.2 71.4 13.6s41.4 1.8 121.2 1.8 89.8-0.4 121.2-1.8c31.2-1.4 52.6-6.4 71.4-13.6 19.6-7.4 37.4-19 52-34 15-14.6 26.6-32.4 34-52 7.2-18.8 12.2-40 13.6-71.4s1.8-41.4 1.8-121.2-0.4-89.8-1.8-121.2z" />
<glyph unicode="&#xe902;" glyph-name="twitter" d="M512 960c-282.8 0-512-229.2-512-512s229.2-512 512-512 512 229.2 512 512-229.2 512-512 512zM745.8 560.8c0.2-5 0.4-10.2 0.4-15.2 0-155.2-118.2-334.4-334.4-334.4v0 0c-66.4 0-128.2 19.4-180.2 52.8 9.2-1 18.6-1.6 28-1.6 55 0 105.8 18.8 146 50.4-51.4 1-94.8 35-109.8 81.6 7.2-1.4 14.6-2.2 22-2.2 10.8 0 21.2 1.4 31 4.2-53.8 10.8-94.2 58.2-94.2 115.2 0 0.6 0 1 0 1.6 15.8-8.8 34-14.2 53.2-14.6-31.6 21-52.2 57-52.2 97.8 0 21.6 5.8 41.8 16 59 58-71.2 144.6-117.8 242.2-122.8-2 8.6-3 17.6-3 26.8 0 64.8 52.6 117.6 117.6 117.6 33.8 0 64.4-14.2 85.8-37.2 26.8 5.2 52 15 74.6 28.6-8.8-27.4-27.4-50.4-51.6-65 23.8 2.8 46.4 9.2 67.4 18.6-16-24-35.8-44.6-58.8-61.2z" />
<glyph unicode="&#xe903;" glyph-name="facebook" d="M594.6-57.4c-4.2-0.6-8.6-1.4-12.8-2 4.2 0.8 8.4 1.4 12.8 2zM604.8-55.6c-2-0.4-4-0.8-6.2-1 2.2 0.2 4.2 0.6 6.2 1zM570.2-60.6c-5-0.6-10-1-15-1.4 5 0.2 10 0.8 15 1.4zM580.2-59.4c-2.4-0.4-4.8-0.6-7.2-0.8 2.2 0.2 4.8 0.4 7.2 0.8zM618.8-52.8c-1.8-0.4-3.6-0.8-5.4-1.2 1.8 0.4 3.6 0.8 5.4 1.2zM653.4-44.2c-1.4-0.4-3-0.8-4.4-1.2 1.4 0.4 2.8 0.8 4.4 1.2zM642.8-47c-1.6-0.4-3.2-0.8-4.8-1.2 1.8 0.2 3.2 0.6 4.8 1.2zM629.2-50.6c-1.6-0.4-3.4-0.8-5-1.2 1.6 0.6 3.4 1 5 1.2zM555-62.2c-2.6-0.2-5.4-0.4-8-0.6 2.6 0.2 5.4 0.4 8 0.6zM1024 448c0 282.8-229.2 512-512 512s-512-229.2-512-512 229.2-512 512-512c3 0 6 0 9 0.2v398.4h-110v128.2h110v94.4c0 109.4 66.8 169 164.4 169 46.8 0 87-3.4 98.6-5v-114.4h-67.2c-53 0-63.4-25.2-63.4-62.2v-81.6h127l-16.6-128.2h-110.4v-379c214 61.4 370.6 258.4 370.6 492.2zM545.8-62.8c-5.4-0.4-10.6-0.6-16-0.8 5.4 0.2 10.6 0.4 16 0.8zM529.6-63.6c-2.8 0-5.6-0.2-8.4-0.2 2.6 0 5.4 0 8.4 0.2z" />
<glyph unicode="&#xe904;" glyph-name="cart" d="M904 720h-121.8c-16 135-131 240-270.2 240s-254.2-105-270.2-240h-121.8c-22 0-40-18-40-40v-704c0-22 18-40 40-40h784c22 0 40 18 40 40v704c0 22-18 40-40 40zM512 880c95 0 174-69.4 189.4-160h-378.8c15.4 90.6 94.4 160 189.4 160zM864 16h-704v624h80v-120c0-22 18-40 40-40s40 18 40 40v120h384v-120c0-22 18-40 40-40s40 18 40 40v120h80v-624z" />
<glyph unicode="&#xe905;" glyph-name="close" d="M568.571 447.997l443.713 443.715c15.622 15.622 15.622 40.95 0 56.57s-40.95 15.622-56.57 0l-443.715-443.715-443.713 443.715c-15.622 15.622-40.95 15.622-56.57 0s-15.622-40.95 0-56.57l443.713-443.713-443.713-443.715c-15.622-15.622-15.622-40.95 0-56.57 7.81-7.81 18.048-11.714 28.286-11.714s20.474 3.904 28.286 11.714l443.711 443.713 443.713-443.713c7.81-7.81 18.048-11.714 28.286-11.714s20.474 3.904 28.286 11.714c15.622 15.622 15.622 40.95 0 56.57l-443.713 443.713z" />
<glyph unicode="&#xe906;" glyph-name="minus" d="M0 512.001h1024v-128.001h-1024v128.001z" />
<glyph unicode="&#xe907;" glyph-name="plus" d="M575.888 511.888v448.112h-127.775v-448.112h-448.112v-127.775h448.112v-448.112h127.775v448.112h448.112v127.775z" />
<glyph unicode="&#xe908;" glyph-name="sg" d="M956 275.8l-277 166.6c-38.8 23.4-82.2 38.2-127 43.8v41.8c0 23.6 13.4 45.4 35.2 57.2 53.8 29.2 85.6 85.2 82.8 146.4-3.8 81-69.2 146.6-150.4 150.4-91 4.2-165.4-68.2-165.4-157.8 0-22 18-40 40-40s40 18 40 40c0 44.2 36.8 80 81.8 78 39.8-1.8 72.4-34.4 74.2-74.2 1.4-30.2-14.2-58-40.8-72.4-47.6-25.8-77-74.6-77-127.4v-41.8c-44.6-5.6-87.6-20.2-126.4-43.4l-277.2-166c-42.6-25.4-68.8-71.6-68.8-120.6 0-77.6 62.6-140.6 140.2-140.6l743.2-0.8c77.4 0 140.4 63 140.4 140.2 0.2 49-25.8 95.2-67.8 120.6zM883.6 94.8c0 0-0.2 0 0 0l-743.2 0.8c-33.4 0-60.4 27.2-60.4 60.6 0 21.2 11.2 41 29.4 51.8v0l277.4 166c77.2 46.2 173.8 46.2 251-0.2l277-166.6c18-10.8 29.4-30.8 29.2-51.8 0-33.4-27.2-60.6-60.4-60.6z" />
</font></defs></svg>